{
    "KPlugin": {
        "Category": "Accessibility",
        "Description": "Magnify the entire desktop",
        "Description[ar]": "كبّر كلّ سطح المكتب",
        "Description[az]": "İş Masasının miqyasının dəyişdirilməsi",
        "Description[ca@valencia]": "Amplia tot l'escriptori",
        "Description[ca]": "Amplia tot l'escriptori",
        "Description[cs]": "Přiblíží celou plochu",
        "Description[de]": "Vergrößert die gesamte Arbeitsfläche",
        "Description[en_GB]": "Magnify the entire desktop",
        "Description[es]": "Ampliar todo el escritorio",
        "Description[fi]": "Suurenna koko työpöytää",
        "Description[fr]": "Agrandir la totalité du bureau",
        "Description[hu]": "Kinagyítja az egész asztalt",
        "Description[ia]": "Aggrandi le integre scriptorio",
        "Description[id]": "Memperbesar desktop keseluruhan",
        "Description[it]": "Ingrandisce l'intero desktop",
        "Description[ko]": "전체 바탕 화면을 확대합니다",
        "Description[nl]": "Vergroot het gehele bureaublad",
        "Description[nn]": "Forstørr heile skrivebordet",
        "Description[pl]": "Powiększa cały pulpit",
        "Description[pt]": "Ampliar o ecrã completo",
        "Description[pt_BR]": "Amplia a área de trabalho inteira",
        "Description[ro]": "Mărește întregul birou",
        "Description[ru]": "Изменение масштаба рабочего стола",
        "Description[sk]": "Zväčší celú plochu",
        "Description[sl]": "Povečaj celotno namizje",
        "Description[sv]": "Förstora hela skrivbordet",
        "Description[ta]": "முழு திரையை உருப்பெருக்கி காட்டும்",
        "Description[tr]": "Tüm masaüstünü büyüt",
        "Description[uk]": "Збільшення цілої стільниці",
        "Description[vi]": "Phóng đại toàn bộ bàn làm việc",
        "Description[x-test]": "xxMagnify the entire desktopxx",
        "Description[zh_CN]": "放大显示整个桌面，视图跟随鼠标移动",
        "EnabledByDefault": true,
        "Id": "zoom",
        "License": "GPL",
        "Name": "Zoom",
        "Name[ar]": "تكبير",
        "Name[az]": "Miqyas",
        "Name[ca@valencia]": "Zoom",
        "Name[ca]": "Zoom",
        "Name[cs]": "Zvětšení",
        "Name[en_GB]": "Zoom",
        "Name[es]": "Ampliación",
        "Name[fi]": "Lähennys",
        "Name[fr]": "Zoom",
        "Name[hu]": "Nagyítás",
        "Name[ia]": "Zoom",
        "Name[id]": "Zoom",
        "Name[it]": "Ingrandimento",
        "Name[ko]": "확대/축소",
        "Name[nl]": "Zoomen",
        "Name[nn]": "Forstørr skrivebordet",
        "Name[pl]": "Powiększanie",
        "Name[pt]": "Ampliação",
        "Name[pt_BR]": "Zoom",
        "Name[ro]": "Apropiere",
        "Name[ru]": "Масштаб",
        "Name[sk]": "Lupa",
        "Name[sl]": "Zoom",
        "Name[sv]": "Zooma",
        "Name[ta]": "உருப்பெருக்கம்",
        "Name[tr]": "Yakınlaştır",
        "Name[uk]": "Масштабування",
        "Name[vi]": "Thu phóng",
        "Name[x-test]": "xxZoomxx",
        "Name[zh_CN]": "缩放"
    },
    "X-KDE-ConfigModule": "kwin_zoom_config",
    "org.kde.kwin.effect": {
        "exclusiveGroup": "magnifiers",
        "video": "https://files.kde.org/plasma/kwin/effect-videos/zoom.ogv"
    }
}
