{
    "KPlugin": {
        "Category": "Appearance",
        "Description": "Sliding animation for Plasma popups",
        "Description[ar]": "تحريكات التمرير لمنبثقات بلازما",
        "Description[az]": "Sürüşən pəncərələrin animasiyalı peyda olması",
        "Description[ca@valencia]": "Animació de desplaçament per als missatges emergents de Plasma",
        "Description[ca]": "Animació de desplaçament per als missatges emergents del Plasma",
        "Description[cs]": "Animace klouzání vyskakovacích oken plasmy",
        "Description[de]": "Effekt zum Hereingleiten von Plasma-Aufklappfenstern",
        "Description[en_GB]": "Sliding animation for Plasma popups",
        "Description[es]": "Animación de deslizamiento para las ventanas emergentes de Plasma",
        "Description[fi]": "Plasma-ponnahdusikkunoiden liukuanimaatio",
        "Description[fr]": "Animation de glissement pour les menus contextuels de Plasma",
        "Description[hu]": "Csúszó animáció a felugró Plasma ablakokhoz",
        "Description[ia]": "Animation glissante pro popups de Plasma",
        "Description[id]": "Animasi geser untuk sembulan Plasma",
        "Description[it]": "Animazione di scivolamento delle finestre a comparsa di Plasma",
        "Description[ko]": "Plasma 팝업의 미끄러짐 애니메이션",
        "Description[nl]": "Schuivende animaties voor Plasma-popups",
        "Description[nn]": "Glide-animasjon for Plasma-sprettoppvindauge",
        "Description[pl]": "Animuje wysuwanie paneli Plazmy",
        "Description[pt]": "Animação deslizante das janelas do Plasma",
        "Description[pt_BR]": "Animação deslizante para as mensagens instantâneas do Plasma",
        "Description[ro]": "Animație lunecoasă pentru indiciile Plasma",
        "Description[ru]": "Анимация всплывающих окон для Plasma",
        "Description[sk]": "Animácia vysúvania pre vyskakovacie okná plasmy",
        "Description[sl]": "Animacija drsenja za pogovorna okna",
        "Description[sv]": "Glidande animering av Plasmarutor",
        "Description[tr]": "Plasma açılır pencereleri için kayma canlandırması",
        "Description[uk]": "Анімація з ковзанням для контекстних вікон Плазми",
        "Description[vi]": "Hiệu ứng động dạng trượt cho các ô bật lên Plasma",
        "Description[x-test]": "xxSliding animation for Plasma popupsxx",
        "Description[zh_CN]": "气泡显示/隐藏时呈现滑动动效",
        "EnabledByDefault": true,
        "Id": "slidingpopups",
        "License": "GPL",
        "Name": "Sliding popups",
        "Name[ar]": "تمرير المنبثقات",
        "Name[az]": "Ani pəncərə animasiyası",
        "Name[ca@valencia]": "Missatges emergents desplaçant-se",
        "Name[ca]": "Missatges emergents desplaçant-se",
        "Name[cs]": "Klouzající vyskakovací okna",
        "Name[de]": "Hereingleitende Aufklappfenster",
        "Name[en_GB]": "Sliding popups",
        "Name[es]": "Deslizar ventanas emergentes",
        "Name[fi]": "Ponnahdusikkunaliuku",
        "Name[fr]": "Annotations glissantes",
        "Name[hu]": "Csúszó felugró ablakok",
        "Name[ia]": "Popups glissante",
        "Name[it]": "Finestre a comparsa che scivolano",
        "Name[ko]": "미끄러지는 팝업",
        "Name[nl]": "Schuivende popups",
        "Name[nn]": "Glidande sprettoppvindauge",
        "Name[pl]": "Wysuwanie paneli",
        "Name[pt]": "Janelas deslizantes",
        "Name[pt_BR]": "Mensagens instantâneas deslizantes",
        "Name[ro]": "Indicii lunecoase",
        "Name[ru]": "Анимация всплывающих окон",
        "Name[sk]": "Vysúvať vyskakovacie okná",
        "Name[sl]": "Drsni pojavi",
        "Name[sv]": "Glidande rutor",
        "Name[tr]": "Kayan Açılır Pencereler",
        "Name[uk]": "Ковзні контекстні вікна",
        "Name[vi]": "Ô bật lên dạng trượt",
        "Name[x-test]": "xxSliding popupsxx",
        "Name[zh_CN]": "气泡滑动动效"
    },
    "org.kde.kwin.effect": {
        "video": "https://files.kde.org/plasma/kwin/effect-videos/sliding_popups.mp4"
    }
}
